{
  "collection": "@nestjs/schematics",
  "sourceRoot": "src",
  "compilerOptions": {
    "assets": ["config/env/*"],
    "plugins": [
      {
        "name": "@nestjs/swagger",
        "options": {
          "introspectComments": true
        }
      }
    ]
  }
}
